Get SWLI estimates and uncertainty — swli_results • BTFr
…
#> 
#> $SWLI_dat
#> # A tibble: 69 × 5
#>    Depth  SWLI sigma lower upper
#>    <dbl> <dbl> <dbl> <dbl> <dbl>
#>  1     3  202. 12.3   177.  227.
#>  2     5  201. 20.9   159.  243.
#>  3     6  150.  8.20  133.  166.
#>  4     7  192.  8.47  175.  209.
#>  5    10  167.  6.56  154.  180.
#>  6    11  202. 22.6   157.  247.
#>  7    13  172.  5.41  162.  183.
#>  8    15  167.  6.98  153.  181.
#>  9    17  203. 16.6   170.  237.
#> 10    19  182.  8.22  165.  198.
#> # … with 59 more rows
…
