Get SWLI estimates and uncertainty — swli_results • BTF
…
#> 
#> $SWLI_dat
#> # A tibble: 69 × 5
#>    Depth  SWLI sigma lower upper
#>    <dbl> <dbl> <dbl> <dbl> <dbl>
#>  1     3  178.  2.96  172.  184.
#>  2     5  183. 11.7   160.  207.
#>  3     6  159.  3.80  151.  167.
#>  4     7  186.  7.75  170.  201.
#>  5    10  184. 12.2   159.  208.
#>  6    11  175.  6.53  162.  188.
#>  7    13  173.  3.80  165.  180.
#>  8    15  173.  5.27  163.  184.
#>  9    17  172.  7.07  158.  187.
#> 10    19  192.  6.71  179.  206.
#> # … with 59 more rows
…
